"31","1","6","MR. Student One","23","Student","One",,"NR000001",,"88881111","s1@cms.com",,"202cb962ac59075b964b07152d234b70",,"11/01/2022","Male","2000-11-01","Single","1","Malaysian","1","1","1","0","5","Asian Towers, Near Malysian Embassy","KL","110","1","KL","Face to Face - Full Time","21","2","21","1","1","3","1","1","Nov-2020","200001","0","Asian Towers, Near Malysian Embassy","KL","110","1","KL","200001",,"Yes",,"Approved",,"55","APEL","0","1",,"0","2020-11-09 01:11:00",NULL,"2020-11-08 11:41:01","1","2020-11-08 07:11:28"
"32","1","6","MDM. Student  Five","22","Student ","Five",,"NR05",,"8888855555","s5@cms.com",,"202cb962ac59075b964b07152d234b70",,,"Male","2002-11-02","Single","1","Malaysian","1","1","1","0","5","Halifax Road, Klailam Street, Kaula Lampura","Kaula Lampura","110","1","Kaula Lampura","Face to Face - Part Time","22","2","22","11","1","3","1","1","Nov-2020","210001","0","Halifax Road, Klailam Street, Kaula Lampura","Kaula Lampura","110","1","Kaula Lampura","210001",,"Yes",,"Approved",,"59","DIRECT ENTRY","0","1",,"0","2020-11-10 01:43:00",NULL,"2020-11-09 12:13:40","1","2020-11-09 11:59:44"
"33","1","6","AG. Student Four","1","Student","Four",,"NR04",,"8888844444","s4@cms.com",,"202cb962ac59075b964b07152d234b70",,,"Male","1999-11-17","Single","1","Malaysian","1","1","1","0","4","Kali Road, Kaula Kalpura","Kaula Kalpura","110","1","Kaula Kalpura","Face to Face - Full Time","21","2","21","1","1","3","1","1","Nov-2020","210001","0","Kaleel Road","Kaula Kalpura","110","1","Kaula Kalpura","210001",,"No",,"Approved",,"58","APEL","0","1",,"0","2020-11-10 01:43:00",NULL,"2020-11-09 12:13:56","1","2020-11-09 11:49:51"
"34","1","6","DATIN. AEU1 AEU","2","AEU1","AEU",,"731005025282",,"6092654648","aeutesting1@gmail.com",,"a5ba239f6b346cdad2d889ba32e27291",,,"Male","2020-11-10","Married","2","Malaysian","1","1","2","1","4","address one","address tow","110","9","KL","Face to Face - Part Time","22","2","22","11","1","3","1","1","Nov-2020","34590","0","address one","address tow","110","9","city","424243",,"Yes",,"Approved",,"60","DIRECT ENTRY","0","1",,"0","2020-11-10 10:20:00",NULL,"2020-11-09 20:50:13","1","2020-11-09 20:37:00"
"35","1","6","AG. aeutesting2 2","1","aeutesting2","2",,"7373737337377",,"7737373733737","aeutesting2@gmail.com",,"e5af395c2248bbd4b2fd7c0a787c1f4c",,,"Male","2020-11-11","Single","1","Malaysian","1","1","3","0","0","abc","abc","110","1","KL","Face to Face - Full Time","21","2","21","11","1","3","1","1","Nov-2020","12345","1","abc","abc","110","1","KL","12345",,"No",,"Approved",,"62","DIRECT ENTRY","0","1",,"0","2020-11-11 09:27:00",NULL,"2020-11-10 19:57:42",NULL,"2020-11-10 19:52:00"
"36","1","7","MR. Masav Z","23","Masav","Z",,"009","ZX12345","1234567890","masav@g.com",,"5f4dcc3b5aa765d61d8327deb882cf99",,,"Male","1988-11-01","Married","3","Other","1","7","2","0","0","No. 123, Pali Road","Red Building","110","1","Kedah","Online - Full Time","24","1","24","0","4","5","1","1","Nov-2020","75001","1","No. 123, Pali Road","Red Building","110","1","Kedah","75001",,"Yes",,"Approved",,"67","DIRECT ENTRY","0","1",,"0","2020-11-15 23:58:00",NULL,"2020-11-15 10:28:35",NULL,"2020-11-15 10:06:31"
